{
  "project_info": {
    "project_number": "668762329304",
    "firebase_url": "https://chatapp-39760.firebaseio.com",
    "project_id": "chatapp-39760",
    "storage_bucket": "chatapp-39760.appspot.com"
  },
  "client": [
    {
      "client_info": {
        "mobilesdk_app_id": "1:668762329304:android:650addfa01e6694a35c7ad",
        "android_client_info": {
          "package_name": "com.example.groupchat"
        }
      },
      "oauth_client": [
        {
          "client_id": "668762329304-4s0rmq6k8duc8ldujomg6br1ike2qtup.apps.googleusercontent.com",
          "client_type": 1,
          "android_info": {
            "package_name": "com.example.groupchat",
            "certificate_hash": "7c9d40a912c6be576e8f2f6e23f840c6da1504ab"
          }
        },
        {
          "client_id": "668762329304-qo250t48747ajlum9028s6gt217tjuhr.apps.googleusercontent.com",
          "client_type": 3
        }
      ],
      "api_key": [
        {
          "current_key": "AIzaSyCHeZuYJqnL9eSgkW-DcTHZRM0kPdMMhME"
        }
      ],
      "services": {
        "appinvite_service": {
          "other_platform_oauth_client": [
            {
              "client_id": "668762329304-qo250t48747ajlum9028s6gt217tjuhr.apps.googleusercontent.com",
              "client_type": 3
            }
          ]
        }
      }
    }
  ],
  "configuration_version": "1"
}